<?php
session_start();
$conn=mysql_connect("localhost","root","");
  
  if(!$conn){
	  
die(mysql_error());	  
  }
	  
$select_db =mysql_select_db("project",$conn);


 if(!$select_db){
	  
die(mysql_error());	  
  }
?>
<!DOCTYPE html>
<html lang="en">

<head>

    <meta charset="utf-8">
    <meta http-equiv="X-UA-Compatible" content="IE=edge">
    <meta name="viewport" content="width=device-width, initial-scale=1">
    <meta name="description" content="">
    <meta name="author" content="">

    <title>ASSET MANAGER</title>

    <!-- Bootstrap Core CSS -->
    <link href="../bower_components/bootstrap/dist/css/bootstrap.min.css" rel="stylesheet">

    <!-- MetisMenu CSS -->
    <link href="../bower_components/metisMenu/dist/metisMenu.min.css" rel="stylesheet">

    <!-- Custom CSS -->
    <link href="../dist/css/sb-admin-2.css" rel="stylesheet">

    <!-- Custom Fonts -->
    <link href="../bower_components/font-awesome/css/font-awesome.min.css" rel="stylesheet" type="text/css">

    <!-- HTML5 Shim and Respond.js IE8 support of HTML5 elements and media queries -->
    <!-- WARNING: Respond.js doesn't work if you view the page via file:// -->
    <!--[if lt IE 9]>
        <script src="https://oss.maxcdn.com/libs/html5shiv/3.7.0/html5shiv.js"></script>
        <script src="https://oss.maxcdn.com/libs/respond.js/1.4.2/respond.min.js"></script>
    <![endif]-->
	
<link href="stylesheet/facebox.css" media="screen" rel="stylesheet" type="text/css" />
<script src="jss/argiepolicarpio.js" type="text/javascript" charset="utf-8"></script>

<script src="jss/jquery.js" type="text/javascript"></script>
<script src="jss/facebox.js" type="text/javascript"></script>
  <script type="text/javascript">
    jQuery(document).ready(function($) {
      $('a[rel*=facebox]').facebox({
        loadingImage : 'loading.gif',
        closeImage   : 'closelabel.png'
      })
    });
  </script>

</head>

<body>

    <div id="wrapper">
        <!-- Page Content -->
        <!--<div id="page-wrapper">-->
                 <!--<div class="container-fluid">-->
                <div class="row">
                    <div class="col-lg-12">
                      <h1 class="page-header"></h1>
                    </div>
                   <!-- /.col-lg-12 -->
                </div>
                <!-- /.row -->
            <div class="row">
                <div class="col-lg-12">
                    <div class="panel panel-default">
                        <div class="panel-heading">
                            
                        </div>
                        <!-- /.panel-heading 
                        <div class="panel-body">-->
                          
						<?php
							    if(isset($_GET['del'])){
								
								$delete_id =$_GET['del'];
								
								$delete_query = "DELETE FROM `items` WHERE item_id = '$delete_id'";
								
								if(mysql_query($delete_query)){
									
							      echo '<script>confirm("Are you sure you want to trash this item?")</script>';
								  echo '<script>window.open("tables.php","_self")</script>';
									}
								else{
										
										die(mysql_error());
										
									}
								
								
								
								}
							?>


                            
                        <!--</div>
                         /.panel-body -->
                    </div>
                    <!-- /.panel -->
                </div>
                <!-- /.col-lg-12 -->
            </div>
            <!-- /.row -->
            
        </div>
        <!-- /#page-wrapper -->

    </div>
    <!-- /#wrapper -->

    <!-- jQuery -->
    <script src="../bower_components/jquery/dist/jquery.min.js"></script>

    <!-- Bootstrap Core JavaScript -->
    <script src="../bower_components/bootstrap/dist/js/bootstrap.min.js"></script>

    <!-- Metis Menu Plugin JavaScript -->
    <script src="../bower_components/metisMenu/dist/metisMenu.min.js"></script>

    <!-- DataTables JavaScript -->
    <script src="../bower_components/datatables/media/js/jquery.dataTables.min.js"></script>
    <script src="../bower_components/datatables-plugins/integration/bootstrap/3/dataTables.bootstrap.min.js"></script>

    <!-- Custom Theme JavaScript -->
    <script src="../dist/js/sb-admin-2.js"></script>

    <!-- Page-Level Demo Scripts - Tables - Use for reference -->
    <script>
    $(document).ready(function() {
        $('#dataTables-example').DataTable({
                responsive: true
        });
    });
    </script>

</body>

</html>
