affln_depart_id,affln_depart_name,affln_id,affln_depart_code,date_modified
2,COMPSCI,0,EUF004D001,2016-03-21 09:42:51
3,ECONSTAT,5,EUF005D001,2016-03-21 09:43:20
4,ANHE,3,EUF002D001,2016-03-21 09:44:53
6,GENDER,7,EUF007D001,2016-03-21 09:46:46
7,TRANSPORT,8,EUF003D001,2016-03-21 09:51:57
8,CATERING ,8,EUF007D002,2016-03-21 09:52:48
9,GUIDANCEANDCOUNSELLING,8,EUF007D003,2016-03-21 09:53:36
